%YAML 1.1
%TAG !u! tag:unity3d.com,2011:
--- !u!114 &11400000
MonoBehaviour:
  m_ObjectHideFlags: 0
  m_CorrespondingSourceObject: {fileID: 0}
  m_PrefabInstance: {fileID: 0}
  m_PrefabAsset: {fileID: 0}
  m_GameObject: {fileID: 0}
  m_Enabled: 1
  m_EditorHideFlags: 0
  m_Script: {fileID: 11500000, guid: 2cac19044f7e29542bb33defe4561396, type: 3}
  m_Name: Ship_6
  m_EditorClassIdentifier: 
  translationValue:
    x: 0
    y: 0
    z: 0
  rotationValue:
    x: 0
    y: 0
    z: 0
  scaleValue: 1
  massValue: 0.0001
  gravityFactorValue: 0
  linearDampingValue: 0.05
  angularDampingValue: 0.05
  linearVelocityValue:
    x: 0
    y: 0
    z: 0
  angularVelocityValue:
    x: 0
    y: 0
    z: 0
  renderMesh:
    mesh: {fileID: -1514780415557789958, guid: 648f976a04b719c44b1edf2c9348bb5b, type: 3}
    material: {fileID: 2100000, guid: 8e1e3dca056230942b9cd7478027480c, type: 2}
    subMesh: 0
    layer: 0
    castShadows: 1
    receiveShadows: 1
    needMotionVectorPass: 0
